﻿{
  "$schema": "http://schemastore.org/schemas/json/webjob-publish-settings.json",
  "webJobName": "BritishGasPriceUpdater",
  "startTime": "2014-10-24T00:00:00+00:00",
  "endTime": null,
  "jobRecurrenceFrequency": "Week",
  "interval": 2,
  "runMode": "Scheduled"
}